{
    "resource": "list",
    "uri": "/v1/marketplaces/foo/sellers/27e17b778b404a83bf8e25ec995e2ffe/transactions",
    "items": [
        {
            "id": "c8e5e6f1b69c49e7b6079a46e1014545",
            "resource": "transaction",
            "status": "failed",
            "confirmed": "0",
            "amount": "214.00",
            "original_amount": "214.00",
            "currency": "BRL",
            "description": "",
            "payment_type": "boleto",
            "transaction_number": null,
            "gateway_authorizer": null,
            "app_transaction_uid": null,
            "refunds": null,
            "rewards": null,
            "discounts": null,
            "pre_authorization": null,
            "sales_receipt": null,
            "on_behalf_of": "27e17b778b404a83bf8e25ec995e2ffe",
            "customer": "cd851d9a42724abcac71dd26dd1f515f",
            "statement_descriptor": "foo",
            "payment_method": {
                "id": null,
                "zoop_boleto_id": null,
                "resource": "boleto",
                "description": null,
                "reference_number": null,
                "document_number": null,
                "expiration_date": "1970-01-01T00:00:00+00:00",
                "payment_limit_date": null,
                "recipient": null,
                "bank_code": null,
                "customer": null,
                "address": null,
                "sequence": null,
                "url": null,
                "accepted": false,
                "printed": false,
                "downloaded": false,
                "fingerprint": null,
                "paid_at": null,
                "uri": "/",
                "barcode": null,
                "metadata": {},
                "created_at": "1970-01-01T00:00:00+00:00",
                "updated_at": "1970-01-01T00:00:00+00:00",
                "status": null
            },
            "point_of_sale": {
                "entry_mode": "barcode",
                "identification_number": null
            },
            "installment_plan": null,
            "refunded": false,
            "voided": false,
            "captured": true,
            "fees": "0.00",
            "fee_details": null,
            "location_latitude": null,
            "location_longitude": null,
            "individual": null,
            "business": null,
            "uri": "/v1/marketplaces/foo/transactions/c8e5e6f1b69c49e7b6079a46e1014545",
            "metadata": {},
            "expected_on": "1970-01-01T00:00:00+00:00",
            "created_at": "2019-08-19T18:48:25+00:00",
            "updated_at": "2019-08-19T18:48:26+00:00",
            "reference_id": "000000060572 7",
            "history": [
                {
                    "id": "1775682d07584ba0a28055818724defa",
                    "transaction": "c8e5e6f1b69c49e7b6079a46e1014545",
                    "amount": "214.00",
                    "operation_type": "created",
                    "status": "succeeded",
                    "response_code": null,
                    "response_message": null,
                    "authorization_code": null,
                    "authorizer_id": null,
                    "authorization_nsu": null,
                    "gatewayResponseTime": null,
                    "authorizer": null,
                    "created_at": "2019-08-19 18:48:25"
                }
            ]
        }
    ],
    "has_more": true,
    "limit": 100,
    "total_pages": 27,
    "page": 1,
    "offset": 0,
    "total": "2640",
    "query_count": "2640"
}