{
    "resource": "list",
    "uri": "/v1/marketplaces/d77c2258b51d49269191502695f939f4/transactions",
    "items": [
        {
            "id": "08888da036fd4c5e8491550881e44e94",
            "resource": "transaction",
            "status": "pending",
            "confirmed": "0",
            "amount": "20.00",
            "original_amount": "20.00",
            "currency": "BRL",
            "description": "celular",
            "payment_type": "boleto",
            "transaction_number": null,
            "gateway_authorizer": null,
            "app_transaction_uid": null,
            "refunds": null,
            "rewards": null,
            "discounts": null,
            "pre_authorization": null,
            "sales_receipt": null,
            "on_behalf_of": "d6940dbb811846fda1544d39d2fe7463",
            "customer": "d38a99b734fb4a0f9a0bd92499aab9f5",
            "statement_descriptor": "bemvindo",
            "payment_method": {
                "id": "62d393fbe1d044a184960da766873362",
                "zoop_boleto_id": null,
                "resource": "boleto",
                "description": "celular",
                "reference_number": "327992",
                "document_number": "327992",
                "expiration_date": "2019-02-22T00:00:00+00:00",
                "payment_limit_date": null,
                "recipient": "bemvindo",
                "bank_code": "109",
                "customer": "d38a99b734fb4a0f9a0bd92499aab9f5",
                "address": null,
                "sequence": "13401",
                "url": "https://api-boleto-production.s3.amazonaws.com/d77c2258b51d49269191502695f939f4/d6940dbb811846fda1544d39d2fe7463/5c6c2948f67c400bd7761c5b.html",
                "accepted": false,
                "printed": false,
                "downloaded": false,
                "fingerprint": null,
                "paid_at": null,
                "uri": "/v1/marketplaces/d77c2258b51d49269191502695f939f4/boletos/62d393fbe1d044a184960da766873362",
                "barcode": "34191090083279926893631339210002178080000002000",
                "metadata": {},
                "created_at": "2019-02-19T13:05:29+00:00",
                "updated_at": "2019-02-19T16:05:28+00:00",
                "status": "not_paid"
            },
            "point_of_sale": {
                "entry_mode": "barcode",
                "identification_number": null
            },
            "installment_plan": null,
            "refunded": false,
            "voided": false,
            "captured": true,
            "fees": "0.00",
            "fee_details": null,
            "location_latitude": null,
            "location_longitude": null,
            "individual": null,
            "business": null,
            "uri": "/v1/marketplaces/d77c2258b51d49269191502695f939f4/transactions/08888da036fd4c5e8491550881e44e94",
            "metadata": {},
            "expected_on": "2019-02-19T13:05:28+00:00",
            "created_at": "2019-02-19T16:05:28+00:00",
            "updated_at": "2019-02-19T16:05:28+00:00",
            "history": [
                {
                    "id": "3781c72add004feaae74942c7acda859",
                    "transaction": "08888da036fd4c5e8491550881e44e94",
                    "amount": "20.00",
                    "operation_type": "created",
                    "status": "succeeded",
                    "response_code": null,
                    "response_message": null,
                    "authorization_code": null,
                    "authorizer_id": null,
                    "authorization_nsu": null,
                    "gatewayResponseTime": null,
                    "authorizer": null,
                    "created_at": "2019-02-19 16:05:28"
                }
            ]
        }
    ],
    "has_more": true,
    "limit": 100,
    "total_pages": 27,
    "page": 1,
    "offset": 0,
    "total": "2633",
    "query_count": "2633"
}