{
    "resource": "list",
    "uri": "/v1/marketplaces/foo/transactions",
    "items": [
        {
            "id": "0f80edb928c745be9200de06fa5697fb",
            "resource": "transaction",
            "status": "failed",
            "confirmed": "0",
            "amount": "20.00",
            "original_amount": "20.00",
            "currency": "BRL",
            "description": "celular",
            "payment_type": "boleto",
            "transaction_number": null,
            "gateway_authorizer": null,
            "app_transaction_uid": null,
            "refunds": null,
            "rewards": null,
            "discounts": null,
            "pre_authorization": null,
            "sales_receipt": null,
            "on_behalf_of": "d6940dbb811846fda1544d39d2fe7463",
            "customer": null,
            "statement_descriptor": "bemvindo",
            "payment_method": {
                "id": null,
                "zoop_boleto_id": null,
                "resource": "boleto",
                "description": null,
                "reference_number": null,
                "document_number": null,
                "expiration_date": "1970-01-01T00:00:00+00:00",
                "payment_limit_date": null,
                "recipient": null,
                "bank_code": null,
                "customer": null,
                "address": null,
                "sequence": null,
                "url": null,
                "accepted": false,
                "printed": false,
                "downloaded": false,
                "fingerprint": null,
                "paid_at": null,
                "uri": "/",
                "barcode": null,
                "metadata": {},
                "created_at": "1970-01-01T00:00:00+00:00",
                "updated_at": "1970-01-01T00:00:00+00:00",
                "status": null
            },
            "point_of_sale": {
                "entry_mode": "barcode",
                "identification_number": null
            },
            "installment_plan": null,
            "refunded": false,
            "voided": false,
            "captured": true,
            "fees": "0.00",
            "fee_details": null,
            "location_latitude": null,
            "location_longitude": null,
            "individual": null,
            "business": null,
            "uri": "/v1/marketplaces/foo/transactions/0f80edb928c745be9200de06fa5697fb",
            "metadata": {},
            "expected_on": "2019-02-19T12:53:11+00:00",
            "created_at": "2019-02-19T15:53:11+00:00",
            "updated_at": "2019-02-19T15:53:11+00:00",
            "history": [
                {
                    "id": "972d779bb67d43f38cb5b4b00bf0b3c6",
                    "transaction": "0f80edb928c745be9200de06fa5697fb",
                    "amount": "20.00",
                    "operation_type": "created",
                    "status": "succeeded",
                    "response_code": null,
                    "response_message": null,
                    "authorization_code": null,
                    "authorizer_id": null,
                    "authorization_nsu": null,
                    "gatewayResponseTime": null,
                    "authorizer": null,
                    "created_at": "2019-02-19 15:53:11"
                }
            ]
        }
    ],
    "has_more": true,
    "limit": 100,
    "total_pages": 27,
    "page": 1,
    "offset": 0,
    "total": "2666",
    "query_count": "2666"
}